…
#### Inspect the data
str(irisdata)

#### Selecting columns
To select columns of a data frame, use **select()**. The first argument to this function is the data frame (irisdata), and the subsequent arguments are the columns to keep.

```r
select(irisdata, Species, Sepal.Length, Sepal.Width)
```

```
## # A tibble: 150 x 3
##    Species Sepal.Length Sepal.Width
##    <chr>          <dbl>       <dbl>
##  1 setosa          5.10        3.50
##  2 setosa          4.90        3.00
##  3 setosa          4.70        3.20
##  4 setosa          4.60        3.10
##  5 setosa          5.00        3.60
##  6 setosa          5.40        3.90
##  7 setosa          4.60        3.40
##  8 setosa          5.00        3.40
##  9 setosa          4.40        2.90
## 10 setosa          4.90        3.10
## # ... with 140 more rows
```
…
